{
  "count": 3429,
  "next": "http://127.0.0.1:8000/api/v1/data-dash/sl500-dd/sl500-data-set/?page=2",
  "previous": null,
  "results": {
    "sl500_data_set": [
      {
        "id": 735,
        "sl500_data": {
          "Id": 735,
          "Data": "2024-02-09T19:05:26+00:00",
          "VEL_X(cm/s)": 40.8,
          "VEL_Y(cm/s)": 1.5,
          "LEVEL(m)": 1.13,
          "VelStDev1/X/E (cm/s)": 0.2,
          "VelStDev2/Y/N (cm/s)": 0.0,
          "VelStDev3/Z/U (cm/s)": 10.0,
          "SignalAmp1 (counts)": 107,
          "SignalAmp2 (counts)": 112,
          "SignalAmp3 (counts)": 212,
          "Ice Detection": 0,
          "Heading (deg)": 284.0,
          "Pitch (deg)": 4.0,
          "Roll (deg)": -3.6,
          "Standard deviation of the Heading (deg)": 0.0,
          "Standard deviation of the Pitch (deg)": 0.0,
          "Standard deviation of the Roll (deg)": 0.0,
          "Mean Tempr (degC)": 27.5,
          "MeanPress (dBar)": 1.23,
          "StDevPress (dBar)": 0.006,
          "Power level (battery voltage) (Volts)": 13.4,
          "CellBegin (m)": 1.5,
          "CellEnd (m)": -119.5,
          "Noise 1": 30,
          "Noise 2": 33,
          "Noise 3": 22,
          "Data Safe": "2024-02-09T19:05:26+00:00",
          "Local Date": "2024-02-09T15:52:23+00:00",
          "Station": 5
        },
        "cells_data_set": [
          {
            "id": 6686,
            "cells_data": {
              "Id": 6686,
              "Parcial Id": 735,
              "Cell": 2,
              "Vx (cm/s)": 61.4,
              "Errx(cms/s)": 7.7,
              "Erry (cm/s)": 0.6,
              "Amp1 (counts)": 0.2,
              "Amp2 (counts)": 126
            }
          },
          {
            "id": 6687,
            "cells_data": {
              "Id": 6687,
              "Parcial Id": 735,
              "Cell": 3,
              "Vx (cm/s)": 65.1,
              "Errx(cms/s)": 7.0,
              "Erry (cm/s)": 0.6,
              "Amp1 (counts)": 0.2,
              "Amp2 (counts)": 117
            }
          },
          {
            "id": 6688,
            "cells_data": {
              "Id": 6688,
              "Parcial Id": 735,
              "Cell": 4,
              "Vx (cm/s)": 68.6,
              "Errx(cms/s)": 6.2,
              "Erry (cm/s)": 0.5,
              "Amp1 (counts)": 0.2,
              "Amp2 (counts)": 108
            }
          }
        ]
      }
    ]
  }
}
